animation{
  name = "stopped",
  src_image = "npc/alttp.png",
  directions = {
    { x = 0, y = 128, frame_width = 24, frame_height = 32, origin_x = 12, origin_y = 29 },
    { x = 24, y = 128, frame_width = 24, frame_height = 32, origin_x = 12, origin_y = 29 },
    { x = 48, y = 128, frame_width = 24, frame_height = 32, origin_x = 12, origin_y = 29 },
    { x = 72, y = 128, frame_width = 24, frame_height = 32, origin_x = 12, origin_y = 29 },
  },
}
animation{
  name = "reading",
  src_image = "npc/alttp.png",
  frame_delay = 500,
  frame_to_loop_on = 0,
  directions = {
    { x = 96, y = 128, frame_width = 24, frame_height = 32, origin_x = 12, origin_y = 29, num_frames = 2 },
    { x = 96, y = 128, frame_width = 24, frame_height = 32, origin_x = 12, origin_y = 29, num_frames = 2 },
    { x = 96, y = 128, frame_width = 24, frame_height = 32, origin_x = 12, origin_y = 29, num_frames = 2 },
    { x = 96, y = 128, frame_width = 24, frame_height = 32, origin_x = 12, origin_y = 29, num_frames = 2 },
  },
}
animation{
  name = "walking",
  src_image = "npc/alttp.png",
  directions = {
    { x = 0, y = 136, frame_width = 24, frame_height = 24, origin_x = 12, origin_y = 21 },
    { x = 24, y = 136, frame_width = 24, frame_height = 24, origin_x = 12, origin_y = 21 },
    { x = 48, y = 136, frame_width = 24, frame_height = 24, origin_x = 12, origin_y = 21 },
    { x = 72, y = 136, frame_width = 24, frame_height = 24, origin_x = 12, origin_y = 21 },
  },
}
